src/SystemC-AMS/BASK/tr.vcd
$date
    Thu Sep 26 18:34:28 2013
$end

$version
                 SystemC AMS 1.0 --- 1.0 --- 2013_02_18
$end

$timescale
      1 fs
$end

$scope module SystemC_AMS $end

$var real 1 !  rc_out $end
$var real 1 "  lp_out $end
$var wire 1 #  in_bits $end
$var real 1 $  wave $end
$var wire 1 %  out_bits $end

$upscope $end

$enddefinitions $end


#0
r0.000000000000000 !
r0.000000000000000 "
1#
r0.000000000000000 $
1%

#5000000
r0.3090169943749474 !
r0.02902725262060609 "
r0.3090169943749474 $

#10000000
r0.5877852522924731 !
r0.07036216626749722 "
r0.5877852522924731 $

#15000000
r0.8090169943749475 !
r0.1322638198280139 "
r0.8090169943749475 $

#20000000
r0.9510565162951535 !
r0.2059668611360184 "
r0.9510565162951535 $

#25000000
r1.000000000000000 !
r0.2818174472427882 "
r1.000000000000000 $

#30000000
r0.9510565162951535 !
r0.3501919418575961 "
r0.9510565162951535 $

#35000000
r0.8090169943749475 !
r0.4024152469817400 "
r0.8090169943749475 $

#40000000
r0.5877852522924732 !
r0.4315886206564146 "
r0.5877852522924732 $

#45000000
r0.3090169943749475 !
r0.4332457180458453 "
r0.3090169943749475 $

#50000000
r3.216285744678249e-16 !
r0.4057724304641371 "
r-3.216285744678249e-16 $

#55000000
r0.3090169943749477 !
r0.3810070034552757 "
r-0.3090169943749477 $

#60000000
r0.5877852522924734 !
r0.3876495969023746 "
r-0.5877852522924734 $

#65000000
r0.8090169943749473 !
r0.4182783232196281 "
r-0.8090169943749473 $

#70000000
r0.9510565162951535 !
r0.4637908032526824 "
r-0.9510565162951535 $

#75000000
r1.000000000000000 !
r0.5142293855897087 "
r-1.000000000000000 $

#80000000
r0.9510565162951536 !
r0.5596965698712780 "
r-0.9510565162951536 $

#85000000
r0.8090169943749476 !
r0.5912703870031341 "
r-0.8090169943749476 $

#90000000
r0.5877852522924734 !
r0.6018295563849138 "
r-0.5877852522924734 $

#95000000
r0.3090169943749468 !
r0.5867071287039392 "
r-0.3090169943749468 $

#100000000
r6.432571489356498e-16 !
r0.5441081630562700 "
r6.432571489356498e-16 $

#105000000
r0.3090169943749480 !
r0.5057078962056889 "
r0.3090169943749480 $

#110000000
r0.5877852522924736 !
r0.5000595459543550 "
r0.5877852522924736 $

#115000000
r0.8090169943749478 !
r0.5196087657462872 "
r0.8090169943749478 $

#120000000
r0.9510565162951538 !
r0.5551337730631264 "
r0.9510565162951538 $

#125000000
r1.000000000000000 !
r0.5965692819303030 "
r1.000000000000000 $

#130000000
r0.9510565162951536 !
r0.6339207662538726 "
r0.9510565162951536 $

#135000000
r0.8090169943749477 !
r0.6581787943911315 "
r0.8090169943749477 $

#140000000
r0.5877852522924734 !
r0.6621432437992247 "
r0.5877852522924734 $

#145000000
r0.3090169943749478 !
r0.6410760941527235 "
r0.3090169943749478 $

#150000000
r3.673819061467132e-16 !
r0.5931183385354385 "
r3.673819061467132e-16 $

#155000000
r0.3090169943749471 !
r0.5498874622627546 "
r-0.3090169943749471 $

#160000000
r0.5877852522924728 !
r0.5398846238674152 "
r-0.5877852522924728 $

#165000000
r0.8090169943749472 !
r0.5555085486625039 "
r-0.8090169943749472 $

#170000000
r0.9510565162951534 !
r0.5874951513947636 "
r-0.9510565162951534 $

#175000000
r1.000000000000000 !
r0.6257410128560157 "
r-1.000000000000000 $

#180000000
r0.9510565162951538 !
r0.6602172322597795 "
r-0.9510565162951538 $

#185000000
r0.8090169943749467 !
r0.6818833913573096 "
r-0.8090169943749467 $

#190000000
r0.5877852522924720 !
r0.6835114351448875 "
r-0.5877852522924720 $

#195000000
r0.3090169943749462 !
r0.6603381639544729 "
r-0.3090169943749462 $

#200000000
r0.000000000000000 !
r0.6104818732888267 "
0#
r0.000000000000000 $
0%

#205000000
r0.000000000000000 !
r0.5503107055609049 "
r0.000000000000000 $

#210000000
r0.000000000000000 !
r0.4960702125739656 "
r0.000000000000000 $

#215000000
r0.000000000000000 !
r0.4471758468742785 "
r0.000000000000000 $

#220000000
r0.000000000000000 !
r0.4031006759913298 "
r0.000000000000000 $

#225000000
r0.000000000000000 !
r0.3633697037093116 "
r0.000000000000000 $

#230000000
r0.000000000000000 !
r0.3275547510533892 "
r0.000000000000000 $

#235000000
r0.000000000000000 !
r0.2952698418233548 "
r0.000000000000000 $

#240000000
r0.000000000000000 !
r0.2661670429447641 "
r0.000000000000000 $

#245000000
r0.000000000000000 !
r0.2399327148091976 "
r0.000000000000000 $

#250000000
r0.000000000000000 !
r0.2162841311937271 "
r0.000000000000000 $

#255000000
r0.000000000000000 !
r0.1949664323326039 "
r0.000000000000000 $

#260000000
r0.000000000000000 !
r0.1757498783045543 "
r0.000000000000000 $

#265000000
r0.000000000000000 !
r0.1584273731355565 "
r0.000000000000000 $

#270000000
r0.000000000000000 !
r0.1428122329344591 "
r0.000000000000000 $

#275000000
r0.000000000000000 !
r0.1287361740087376 "
r0.000000000000000 $

#280000000
r0.000000000000000 !
r0.1160474992783974 "
r0.000000000000000 $

#285000000
r0.000000000000000 !
r0.1046094634430849 "
r0.000000000000000 $

#290000000
r0.000000000000000 !
r0.09429879928388261 "
r0.000000000000000 $

#295000000
r0.000000000000000 !
r0.08500438921780740 "
r0.000000000000000 $

#300000000
r0.000000000000000 !
r0.07662606778841034 "
r0.000000000000000 $

#305000000
r0.000000000000000 !
r0.06907354218697259 "
r0.000000000000000 $

#310000000
r0.000000000000000 !
r0.06226541917079970 "
r0.000000000000000 $

#315000000
r0.000000000000000 !
r0.05612832789175529 "
r0.000000000000000 $

#320000000
r0.000000000000000 !
r0.05059612918179498 "
r0.000000000000000 $

#325000000
r0.000000000000000 !
r0.04560920277400461 "
r0.000000000000000 $

#330000000
r0.000000000000000 !
r0.04111380477755496 "
r0.000000000000000 $

#335000000
r0.000000000000000 !
r0.03706148848210802 "
r0.000000000000000 $

#340000000
r0.000000000000000 !
r0.03340858224970903 "
r0.000000000000000 $

#345000000
r0.000000000000000 !
r0.03011571886742766 "
r0.000000000000000 $

#350000000
r0.000000000000000 !
r0.02714741128860197 "
r0.000000000000000 $

#355000000
r0.000000000000000 !
r0.02447167019046698 "
r0.000000000000000 $

#360000000
r0.000000000000000 !
r0.02205965922660283 "
r0.000000000000000 $

#365000000
r0.000000000000000 !
r0.01988538425887299 "
r0.000000000000000 $

#370000000
r0.000000000000000 !
r0.01792541321971860 "
r0.000000000000000 $

#375000000
r0.000000000000000 !
r0.01615862358577692 "
r0.000000000000000 $

#380000000
r0.000000000000000 !
r0.01456597474135802 "
r0.000000000000000 $

#385000000
r0.000000000000000 !
r0.01313030277855059 "
r0.000000000000000 $

#390000000
r0.000000000000000 !
r0.01183613552252663 "
r0.000000000000000 $

#395000000
r0.000000000000000 !
r0.01066952578858058 "
r0.000000000000000 $

#400000000
r2.573028595742599e-15 !
r0.009617901073921357 "
1#
r2.573028595742599e-15 $
1%

#405000000
r0.3090169943749482 !
r0.02389881053644118 "
r0.3090169943749482 $

#410000000
r0.5877852522924751 !
r0.06573920086057890 "
r0.5877852522924751 $

#415000000
r0.8090169943749479 !
r0.1280965095995230 "
r0.8090169943749479 $

#420000000
r0.9510565162951543 !
r0.2022102951633430 "
r0.9510565162951543 $

#425000000
r1.000000000000000 !
r0.2784311411764475 "
r1.000000000000000 $

#430000000
r0.9510565162951528 !
r0.3471394016231516 "
r0.9510565162951528 $

#435000000
r0.8090169943749470 !
r0.3996635754847298 "
r0.8090169943749470 $

#440000000
r0.5877852522924711 !
r0.4291081632517847 "
r0.5877852522924711 $

#445000000
r0.3090169943749468 !
r0.4310097429511189 "
r0.3090169943749468 $

#450000000
r2.450567960360361e-15 !
r0.4037568406721478 "
r-2.450567960360361e-15 $

#455000000
r0.3090169943749481 !
r0.3791900770417601 "
r-0.3090169943749481 $

#460000000
r0.5877852522924751 !
r0.3860117529297314 "
r-0.5877852522924751 $

#465000000
r0.8090169943749478 !
r0.4168019107139982 "
r-0.8090169943749478 $

#470000000
r0.9510565162951543 !
r0.4624599109801648 "
r-0.9510565162951543 $

#475000000
r1.000000000000000 !
r0.5130296705816789 "
r-1.000000000000000 $

#480000000
r0.9510565162951529 !
r0.5586151028508337 "
r-0.9510565162951529 $

#485000000
r0.8090169943749471 !
r0.5902955130468354 "
r-0.8090169943749471 $

#490000000
r0.5877852522924712 !
r0.6009507693181765 "
r-0.5877852522924712 $

#495000000
r0.3090169943749469 !
r0.5859149578764440 "
r-0.3090169943749469 $

#500000000
r2.328107324978124e-15 !
r0.5433940712771724 "
r2.328107324978124e-15 $

#505000000
r0.3090169943749480 !
r0.5050641877386817 "
r0.3090169943749480 $

#510000000
r0.5877852522924750 !
r0.4994792835810500 "
r0.5877852522924750 $

#515000000
r0.8090169943749498 !
r0.5190856960041120 "
r0.8090169943749498 $

#520000000
r0.9510565162951532 !
r0.5546622588520274 "
r0.9510565162951532 $

#525000000
r1.000000000000000 !
r0.5961442417619619 "
r1.000000000000000 $

#530000000
r0.9510565162951529 !
r0.6335376194887257 "
r0.9510565162951529 $

#535000000
r0.8090169943749450 !
r0.6578334118730143 "
r0.8090169943749450 $

#540000000
r0.5877852522924742 !
r0.6618319033556347 "
r0.5877852522924742 $

#545000000
r0.3090169943749470 !
r0.6407954404811270 "
r0.3090169943749470 $

#550000000
r2.205646689595886e-15 !
r0.5928653470433204 "
r-2.205646689595886e-15 $

#555000000
r0.3090169943749512 !
r0.5496594064717151 "
r-0.3090169943749512 $

#560000000
r0.5877852522924720 !
r0.5396790460300290 "
r-0.5877852522924720 $

#565000000
r0.8090169943749477 !
r0.5553232332752832 "
r-0.8090169943749477 $

#570000000
r0.9510565162951542 !
r0.5873281013217726 "
r-0.9510565162951542 $

#575000000
r1.000000000000000 !
r0.6255904278058219 "
r-1.000000000000000 $

#580000000
r0.9510565162951540 !
r0.6600814893837909 "
r-0.9510565162951540 $

#585000000
r0.8090169943749472 !
r0.6817610277604058 "
r-0.8090169943749472 $

#590000000
r0.5877852522924715 !
r0.6834011321198620 "
r-0.5877852522924715 $

#595000000
r0.3090169943749437 !
r0.6602387327703816 "
r-0.3090169943749437 $

#600000000
r1.469527624586853e-15 !
r0.6103922423800869 "
1#
r-1.469527624586853e-15 $
1%

#605000000
r0.3090169943749477 !
r0.5654587914511682 "
r0.3090169943749477 $

#610000000
r0.5877852522924748 !
r0.5539211899427241 "
r0.5877852522924748 $

#615000000
r0.8090169943749497 !
r0.5681616230919572 "
r0.8090169943749497 $

#620000000
r0.9510565162951531 !
r0.5989010958158076 "
r0.9510565162951531 $

#625000000
r1.000000000000000 !
r0.6360227486397800 "
r1.000000000000000 $

#630000000
r0.9510565162951530 !
r0.6694855652293928 "
r0.9510565162951530 $

#635000000
r0.8090169943749452 !
r0.6902382059374769 "
r0.8090169943749452 $

#640000000
r0.5877852522924744 !
r0.6910427708120274 "
r0.5877852522924744 $

#645000000
r0.3090169943749472 !
r0.6671271855882716 "
r0.3090169943749472 $

#650000000
r1.960725418831410e-15 !
r0.6166017458826465 "
r-1.960725418831410e-15 $

#655000000
r0.3090169943749509 !
r0.5710562651898519 "
r-0.3090169943749509 $

#660000000
r0.5877852522924718 !
r0.5589669576506153 "
r-0.5877852522924718 $

#665000000
r0.8090169943749476 !
r0.5727100627900384 "
r-0.8090169943749476 $

#670000000
r0.9510565162951542 !
r0.6030012258425481 "
r-0.9510565162951542 $

#675000000
r1.000000000000000 !
r0.6397187559196545 "
r-1.000000000000000 $

#680000000
r0.9510565162951541 !
r0.6728172814734615 "
r-0.9510565162951541 $

#685000000
r0.8090169943749473 !
r0.6932415369080178 "
r-0.8090169943749473 $

#690000000
r0.5877852522924716 !
r0.6937500832773874 "
r-0.5877852522924716 $

#695000000
r0.3090169943749440 !
r0.6695676561381335 "
r-0.3090169943749440 $

#700000000
r1.714448895351328e-15 !
r0.6188016753628781 "
r-1.714448895351328e-15 $

#705000000
r0.3090169943749475 !
r0.5730393621455867 "
r0.3090169943749475 $

#710000000
r0.5877852522924746 !
r0.5607545938322219 "
r0.5877852522924746 $

#715000000
r0.8090169943749496 !
r0.5743215034755521 "
r0.8090169943749496 $

#720000000
r0.9510565162951530 !
r0.6044538374587410 "
r0.9510565162951530 $

#725000000
r1.000000000000000 !
r0.6410281931992688 "
r1.000000000000000 $

#730000000
r0.9510565162951530 !
r0.6739976561655886 "
r0.9510565162951530 $

#735000000
r0.8090169943749453 !
r0.6943055698598093 "
r0.8090169943749453 $

#740000000
r0.5877852522924688 !
r0.6947092415260769 "
r0.5877852522924688 $

#745000000
r0.3090169943749475 !
r0.6704322764908024 "
r0.3090169943749475 $

#750000000
r1.715804148066935e-15 !
r0.6195810757957793 "
r-1.715804148066935e-15 $

#755000000
r0.3090169943749507 !
r0.5737419422235729 "
r-0.3090169943749507 $

#760000000
r0.5877852522924774 !
r0.5613879252304940 "
r-0.5877852522924774 $

#765000000
r0.8090169943749473 !
r0.5748924115792758 "
r-0.8090169943749473 $

#770000000
r0.9510565162951541 !
r0.6049684749199291 "
r-0.9510565162951541 $

#775000000
r1.000000000000000 !
r0.6414921062436461 "
r-1.000000000000000 $

#780000000
r0.9510565162951520 !
r0.6744158443640271 "
r-0.9510565162951520 $

#785000000
r0.8090169943749476 !
r0.6946825400084887 "
r-0.8090169943749476 $

#790000000
r0.5877852522924718 !
r0.6950490562160325 "
r-0.5877852522924718 $

#795000000
r0.3090169943749442 !
r0.6707385978902928 "
r-0.3090169943749442 $

#800000000
r5.146057191485198e-15 !
r0.6198572051173163 "
1#
r5.146057191485198e-15 $
1%

#805000000
r0.3090169943749472 !
r0.5739908553009465 "
r0.3090169943749472 $

#810000000
r0.5877852522924744 !
r0.5616123045892041 "
r0.5877852522924744 $

#815000000
r0.8090169943749493 !
r0.5750946753459949 "
r0.8090169943749493 $

#820000000
r0.9510565162951552 !
r0.6051508028825483 "
r0.9510565162951552 $

#825000000
r1.000000000000000 !
r0.6416564633427553 "
r1.000000000000000 $

#830000000
r0.9510565162951531 !
r0.6745640018689952 "
r0.9510565162951531 $

#835000000
r0.8090169943749455 !
r0.6948160946063574 "
r0.8090169943749455 $

#840000000
r0.5877852522924690 !
r0.6951694472189431 "
r0.5877852522924690 $

#845000000
r0.3090169943749477 !
r0.6708471227468917 "
r0.3090169943749477 $

#850000000
r1.470882877302460e-15 !
r0.6199550333953029 "
r-1.470882877302460e-15 $

#855000000
r0.3090169943749505 !
r0.5740790412914536 "
r-0.3090169943749505 $

#860000000
r0.5877852522924771 !
r0.5616917986688486 "
r-0.5877852522924771 $

#865000000
r0.8090169943749472 !
r0.5751663342190444 "
r-0.8090169943749472 $

#870000000
r0.9510565162951540 !
r0.6052153988135871 "
r-0.9510565162951540 $

#875000000
r1.000000000000000 !
r0.6417146924793465 "
r-1.000000000000000 $

#880000000
r0.9510565162951521 !
r0.6746164917440329 "
r-0.9510565162951521 $

#885000000
r0.8090169943749477 !
r0.6948634109009613 "
r-0.8090169943749477 $

#890000000
r0.5877852522924720 !
r0.6952120998587797 "
r-0.5877852522924720 $

#895000000
r0.3090169943749445 !
r0.6708855713976210 "
r-0.3090169943749445 $

#900000000
r4.901135920720723e-15 !
r0.6199896924163754 "
r4.901135920720723e-15 $

#905000000
r0.3090169943749470 !
r0.5741102842016446 "
r0.3090169943749470 $

#910000000
r0.5877852522924742 !
r0.5617199621716535 "
r0.5877852522924742 $

#915000000
r0.8090169943749492 !
r0.5751917218313188 "
r0.8090169943749492 $

#920000000
r0.9510565162951551 !
r0.6052382841365338 "
r0.9510565162951551 $

#925000000
r1.000000000000000 !
r0.6417353221471039 "
r1.000000000000000 $

#930000000
r0.9510565162951532 !
r0.6746350880816407 "
r0.9510565162951532 $

#935000000
r0.8090169943749457 !
r0.6948801743203478 "
r0.8090169943749457 $

#940000000
r0.5877852522924693 !
r0.6952272110185924 "
r0.5877852522924693 $

#945000000
r0.3090169943749480 !
r0.6708991931501777 "
r0.3090169943749480 $

#950000000
r1.225961606537984e-15 !
r0.6200019715627161 "
r-1.225961606537984e-15 $

#955000000
r0.3090169943749503 !
r0.5741213530735999 "
r-0.3090169943749503 $

#960000000
r0.5877852522924770 !
r0.5617299400579794 "
r-0.5877852522924770 $

#965000000
r0.8090169943749471 !
r0.5752007162632655 "
r-0.8090169943749471 $

#970000000
r0.9510565162951540 !
r0.6052463920467064 "
r-0.9510565162951540 $

#975000000
r1.000000000000000 !
r0.6417426309141008 "
r-1.000000000000000 $

#980000000
r0.9510565162951521 !
r0.6746416764717286 "
r-0.9510565162951521 $

#985000000
r0.8090169943749478 !
r0.6948861133363224 "
r-0.8090169943749478 $

#990000000
r0.5877852522924722 !
r0.6952325646649733 "
r-0.5877852522924722 $

#995000000
r0.3090169943749447 !
r0.6709040191229807 "
r-0.3090169943749447 $


